…
Decision rule: 1) if one row has a qualtrics_id recorded on jspsych,
then keep that row (only possible in exp1); 2) if one row is
blank/partially filled while the other is fully filled, then keep the
more filled row; 3) if no qualtrics_id was recorded on jspsych and both
rows are filled to the same extent, keep the one with earlier StartDate
(this is arbitrarily decided).

``` r
# identify duplicated participants on q by manually examining the data
df_q %>%
  filter(jspsych_id %in% df_j1_id$participant) %>%
  arrange(jspsych_id) # seems like these duplicated rows were both filled and had similar values
```

    ## # A tibble: 50 × 38
    ##    StartD…¹ Recor…² jspsy…³   Age Gender Year  Year_…⁴ Major Major…⁵ Inst  Start
    ##    <chr>    <chr>   <chr>   <dbl> <fct>  <fct> <chr>   <fct> <chr>   <chr> <dbl>
    ##  1 2022-02… 2022-0… 14vd1s…    18 Female Fres… <NA>    Other Public… 1         8
    ##  2 2022-02… 2022-0… 1zp8rs…    NA Female Soph… <NA>    Other Econom… 1         8
    ##  3 2022-02… 2022-0… 2dfy59…    19 Female Soph… <NA>    Other Econom… 1         9
    ##  4 2022-02… 2022-0… 2mm1j8…    NA Female Soph… <NA>    Other Neuros… 0        NA
    ##  5 2022-03… 2022-0… 46ak9p…    19 Male   Soph… <NA>    Other Econom… 1         8
    ##  6 2022-02… 2022-0… 5lrj1r…    19 Female Soph… <NA>    Other econ, … 1         8
    ##  7 2022-02… 2022-0… 5nwv37…    20 Female Soph… <NA>    Other Biology 1        11
    ##  8 2022-02… 2022-0… 5w1v1w…    18 Male   Fres… <NA>    Other Neuros… 1        11
    ##  9 2022-03… 2022-0… 7wr5yq…    19 Female Soph… <NA>    Other Biology 1        12
    ## 10 2022-03… 2022-0… 8glm4k…    21 Female Juni… <NA>    Other Econom… 1         8
    ## # … with 40 more rows, 27 more variables: Inst_now <chr>, Inst_list <chr>,
    ## #   Inst_yr <dbl>, Inst_best <chr>, Ens <chr>, Course <chr>, Course_list <chr>,
    ## #   Read <chr>, Perf <chr>, Time_make <chr>, Time_listen <chr>, Concert <int>,
    ## #   Genre_18 <chr>, Genre_8 <chr>, Genre_9 <chr>, Genre_17 <chr>,
    ## #   Genre_10 <chr>, Genre_11 <chr>, Genre_12 <chr>, Genre_13 <chr>,
    ## #   Genre_16 <chr>, Genre_14 <chr>, Genre_15 <chr>, Genre_15_TEXT <chr>,
    ## #   participant <chr>, Pitch <int>, Tempo <int>, and abbreviated variable …
…
    ## # A tibble: 2 × 2
    ##   participant    qualtrics_id
    ##   <chr>          <chr>       
    ## 1 w3uh3gtrykkjgc 9065164044  
    ## 2 ept8xz3drgq38w participant

``` r
# now do the same for exp2
df_q %>%
  filter(jspsych_id %in% df_j2_id$participant) %>%
  arrange(jspsych_id)
```

    ## # A tibble: 64 × 38
    ##    StartD…¹ Recor…² jspsy…³   Age Gender Year  Year_…⁴ Major Major…⁵ Inst  Start
    ##    <chr>    <chr>   <chr>   <dbl> <fct>  <fct> <chr>   <fct> <chr>   <chr> <dbl>
    ##  1 2022-03… 2022-0… 1k76xh…    18 Female Fres… <NA>    Other Law, L… 1         7
    ##  2 2022-04… 2022-0… 1qnukj…    21 Male   Juni… <NA>    Psyc… <NA>    1        10
    ##  3 2022-03… 2022-0… 1ud48q…    20 Male   Soph… <NA>    Other Mathem… 1        17
    ##  4 2022-03… 2022-0… 1zs6z0…    21 Male   Soph… <NA>    Other <NA>    1         6
    ##  5 2022-03… 2022-0… 25s7fa…    NA Male   Fres… <NA>    Other Not de… 1         8
    ##  6 2022-04… 2022-0… 2qldva…    20 Female Soph… <NA>    Other Chemis… 1         8
    ##  7 2022-03… 2022-0… 2ydzvy…    21 Male   Juni… <NA>    Other Econom… 1         7
    ##  8 2022-04… 2022-0… 3er8w4…    20 Male   Juni… <NA>    Other Engine… 1         7
    ##  9 2022-03… 2022-0… 3n34nq…    20 Male   Soph… <NA>    Other Biolog… 0        NA
    ## 10 2022-03… 2022-0… 3ts9x7…    18 Female Soph… <NA>    <NA>  Biology 1         5
    ## # … with 54 more rows, 27 more variables: Inst_now <chr>, Inst_list <chr>,
    ## #   Inst_yr <dbl>, Inst_best <chr>, Ens <chr>, Course <chr>, Course_list <chr>,
    ## #   Read <chr>, Perf <chr>, Time_make <chr>, Time_listen <chr>, Concert <int>,
    ## #   Genre_18 <chr>, Genre_8 <chr>, Genre_9 <chr>, Genre_17 <chr>,
    ## #   Genre_10 <chr>, Genre_11 <chr>, Genre_12 <chr>, Genre_13 <chr>,
    ## #   Genre_16 <chr>, Genre_14 <chr>, Genre_15 <chr>, Genre_15_TEXT <chr>,
    ## #   participant <chr>, Pitch <int>, Tempo <int>, and abbreviated variable …
…
