…
    ## # A tibble: 2 × 5
    ##   chord mean_pct_key sd_pct_key mean_rtg_key sd_rtg_key
    ##   <chr>        <dbl>      <dbl>        <dbl>      <dbl>
    ## 1 B            0.52       0.234         2.48      0.375
    ## 2 C            0.486      0.337         2.59      0.363

``` r
data %>%
  group_by(instrument, tuning_step, chord) %>%
  get_summary_stats(pct_maj, explicit_rtg, type = "mean_sd")
```

    ## # A tibble: 100 × 7
    ##    instrument tuning_step chord variable         n  mean    sd
    ##    <chr>            <dbl> <chr> <chr>        <dbl> <dbl> <dbl>
    ##  1 oboe                 1 B     explicit_rtg    26 2.27  0.724
    ##  2 oboe                 1 B     pct_maj         26 0.183 0.232
    ##  3 oboe                 1 C     explicit_rtg    23 2.22  0.6  
    ##  4 oboe                 1 C     pct_maj         23 0.038 0.07 
    ##  5 oboe                 2 B     explicit_rtg    26 2.27  0.724
    ##  6 oboe                 2 B     pct_maj         26 0.183 0.201
    ##  7 oboe                 2 C     explicit_rtg    23 2.22  0.6  
    ##  8 oboe                 2 C     pct_maj         23 0.12  0.116
    ##  9 oboe                 3 B     explicit_rtg    26 2.27  0.724
    ## 10 oboe                 3 B     pct_maj         26 0.389 0.243
    ## # … with 90 more rows
…
``` r
# ignore b/c not extreme
```

### Normality

``` r
# violated but fine
data %>%
  group_by(instrument, tuning_step, chord) %>%
  shapiro_test(pct_maj)
```

    ## # A tibble: 50 × 6
    ##    instrument tuning_step chord variable statistic           p
    ##    <chr>            <dbl> <chr> <chr>        <dbl>       <dbl>
    ##  1 oboe                 1 B     pct_maj      0.785 0.000101   
    ##  2 oboe                 1 C     pct_maj      0.592 0.000000741
    ##  3 oboe                 2 B     pct_maj      0.835 0.000753   
    ##  4 oboe                 2 C     pct_maj      0.828 0.00111    
    ##  5 oboe                 3 B     pct_maj      0.955 0.304      
    ##  6 oboe                 3 C     pct_maj      0.879 0.00936    
    ##  7 oboe                 4 B     pct_maj      0.901 0.0165     
    ##  8 oboe                 4 C     pct_maj      0.862 0.00462    
    ##  9 oboe                 5 B     pct_maj      0.836 0.000762   
    ## 10 oboe                 5 C     pct_maj      0.672 0.00000615 
    ## # … with 40 more rows
…
``` r
# post hoc for int
data %>%
  group_by(tuning_step) %>%
  pairwise_t_test(
    pct_maj ~ instrument, paired = TRUE, 
    p.adjust.method = "BH" # try different options
    ) %>% 
  select(-`.y.`, -p)
```

    ## # A tibble: 50 × 9
    ##    tuning_step group1  group2       n1    n2 statistic    df p.adj p.adj.signif
    ##          <dbl> <chr>   <chr>     <int> <int>     <dbl> <dbl> <dbl> <chr>       
    ##  1           1 oboe    piano        49    49    -2.94     48 0.021 *           
    ##  2           1 oboe    trumpet      49    49    -2.45     48 0.036 *           
    ##  3           1 oboe    violin       49    49    -1.61     48 0.144 ns          
    ##  4           1 oboe    xylophone    49    49    -3.91     48 0.003 **          
    ##  5           1 piano   trumpet      49    49     1.26     48 0.239 ns          
    ##  6           1 piano   violin       49    49     1.60     48 0.144 ns          
    ##  7           1 piano   xylophone    49    49    -2.18     48 0.057 ns          
    ##  8           1 trumpet violin       49    49     0.365    48 0.717 ns          
    ##  9           1 trumpet xylophone    49    49    -2.50     48 0.036 *           
    ## 10           1 violin  xylophone    49    49    -2.86     48 0.021 *           
    ## # … with 40 more rows
…
